%!PS-Adobe-3.0
%%Creator: PCBNEW
%%CreationDate: Wed Nov 17 19:32:05 2021
%%Title: /home/zhicai/gDrive/silicon/rtx_git/climate_sensor_breakout/gerbers/climate_sensor_breakout-PTH-drl_map.ps
%%Pages: 1
%%PageOrder: Ascend
%%BoundingBox: 0 0 596 842
%%DocumentMedia: A4 595 842 0 () ()
%%Orientation: Landscape
%%EndComments
%%BeginProlog
/line { newpath moveto lineto stroke } bind def
/cir0 { newpath 0 360 arc stroke } bind def
/cir1 { newpath 0 360 arc gsave fill grestore stroke } bind def
/cir2 { newpath 0 360 arc gsave fill grestore stroke } bind def
/arc0 { newpath arc stroke } bind def
/arc1 { newpath 4 index 4 index moveto arc closepath gsave fill
    grestore stroke } bind def
/arc2 { newpath 4 index 4 index moveto arc closepath gsave fill
    grestore stroke } bind def
/poly0 { stroke } bind def
/poly1 { closepath gsave fill grestore stroke } bind def
/poly2 { closepath gsave fill grestore stroke } bind def
/rect0 { rectstroke } bind def
/rect1 { rectfill } bind def
/rect2 { rectfill } bind def
/linemode0 { 0 setlinecap 0 setlinejoin 0 setlinewidth } bind def
/linemode1 { 1 setlinecap 1 setlinejoin } bind def
/dashedline { [200] 100 setdash } bind def
/solidline { [] 0 setdash } bind def
/phantomshow { moveto
    /KicadFont findfont 0.000001 scalefont setfont
    show } bind def
/textshow { gsave
    findfont exch scalefont setfont concat 1 scale 0 0 moveto show
    } bind def
/reencodefont {
  findfont dup length dict begin
  { 1 index /FID ne
    { def }
    { pop pop } ifelse
  } forall
  /Encoding ISOLatin1Encoding def
  currentdict
  end } bind def
/KicadFont /Helvetica reencodefont definefont pop
/KicadFont-Bold /Helvetica-Bold reencodefont definefont pop
/KicadFont-Oblique /Helvetica-Oblique reencodefont definefont pop
/KicadFont-BoldOblique /Helvetica-BoldOblique reencodefont definefont pop
%%EndProlog
%%Page: 1 1
%%BeginPageSetup
gsave
0.0072 0.0072 scale
linemode1
82680 0 translate 90 rotate
150 setlinewidth
%%EndPageSetup
0 0 0 setrgbcolor
177.165 setlinewidth
newpath
38965 52626 moveto
38965 63126 lineto
stroke
0 0 0 setrgbcolor
newpath
77965 52626 moveto
38965 52626 lineto
stroke
0 0 0 setrgbcolor
newpath
77965 63126 moveto
77965 52626 lineto
stroke
0 0 0 setrgbcolor
newpath
38965 63126 moveto
77965 63126 lineto
stroke
78.7394 setlinewidth
newpath
47866.8 57374.2 moveto
48339.2 56901.8 lineto
stroke
newpath
48339.2 57374.2 moveto
47866.8 56901.8 lineto
stroke
newpath
50878.8 60362.2 moveto
51351.2 59889.8 lineto
stroke
newpath
51351.2 60362.2 moveto
50878.8 59889.8 lineto
stroke
newpath
66028.8 60512.2 moveto
66501.2 60039.8 lineto
stroke
newpath
66501.2 60512.2 moveto
66028.8 60039.8 lineto
stroke
newpath
66028.8 59612.2 moveto
66501.2 59139.8 lineto
stroke
newpath
66501.2 59612.2 moveto
66028.8 59139.8 lineto
stroke
newpath
66028.8 58712.2 moveto
66501.2 58239.8 lineto
stroke
newpath
66501.2 58712.2 moveto
66028.8 58239.8 lineto
stroke
newpath
66028.8 57812.2 moveto
66501.2 57339.8 lineto
stroke
newpath
66501.2 57812.2 moveto
66028.8 57339.8 lineto
stroke
newpath
66028.8 56762.2 moveto
66501.2 56289.8 lineto
stroke
newpath
66501.2 56762.2 moveto
66028.8 56289.8 lineto
stroke
newpath
66028.8 55862.2 moveto
66501.2 55389.8 lineto
stroke
newpath
66501.2 55862.2 moveto
66028.8 55389.8 lineto
stroke
newpath
67228.8 60512.2 moveto
67701.2 60039.8 lineto
stroke
newpath
67701.2 60512.2 moveto
67228.8 60039.8 lineto
stroke
newpath
67228.8 59612.2 moveto
67701.2 59139.8 lineto
stroke
newpath
67701.2 59612.2 moveto
67228.8 59139.8 lineto
stroke
newpath
67228.8 58712.2 moveto
67701.2 58239.8 lineto
stroke
newpath
67701.2 58712.2 moveto
67228.8 58239.8 lineto
stroke
newpath
67228.8 57812.2 moveto
67701.2 57339.8 lineto
stroke
newpath
67701.2 57812.2 moveto
67228.8 57339.8 lineto
stroke
newpath
67228.8 56762.2 moveto
67701.2 56289.8 lineto
stroke
newpath
67701.2 56762.2 moveto
67228.8 56289.8 lineto
stroke
newpath
67228.8 55862.2 moveto
67701.2 55389.8 lineto
stroke
newpath
67701.2 55862.2 moveto
67228.8 55389.8 lineto
stroke
newpath
68428.8 60512.2 moveto
68901.2 60039.8 lineto
stroke
newpath
68901.2 60512.2 moveto
68428.8 60039.8 lineto
stroke
newpath
68428.8 59612.2 moveto
68901.2 59139.8 lineto
stroke
newpath
68901.2 59612.2 moveto
68428.8 59139.8 lineto
stroke
newpath
68428.8 58712.2 moveto
68901.2 58239.8 lineto
stroke
newpath
68901.2 58712.2 moveto
68428.8 58239.8 lineto
stroke
newpath
68428.8 57812.2 moveto
68901.2 57339.8 lineto
stroke
newpath
68901.2 57812.2 moveto
68428.8 57339.8 lineto
stroke
newpath
68428.8 56762.2 moveto
68901.2 56289.8 lineto
stroke
newpath
68901.2 56762.2 moveto
68428.8 56289.8 lineto
stroke
newpath
68428.8 55862.2 moveto
68901.2 55389.8 lineto
stroke
newpath
68901.2 55862.2 moveto
68428.8 55389.8 lineto
stroke
newpath
69628.8 60512.2 moveto
70101.2 60039.8 lineto
stroke
newpath
70101.2 60512.2 moveto
69628.8 60039.8 lineto
stroke
newpath
69628.8 59612.2 moveto
70101.2 59139.8 lineto
stroke
newpath
70101.2 59612.2 moveto
69628.8 59139.8 lineto
stroke
newpath
69628.8 58712.2 moveto
70101.2 58239.8 lineto
stroke
newpath
70101.2 58712.2 moveto
69628.8 58239.8 lineto
stroke
newpath
69628.8 57812.2 moveto
70101.2 57339.8 lineto
stroke
newpath
70101.2 57812.2 moveto
69628.8 57339.8 lineto
stroke
newpath
69628.8 56912.2 moveto
70101.2 56439.8 lineto
stroke
newpath
70101.2 56912.2 moveto
69628.8 56439.8 lineto
stroke
newpath
69628.8 56012.2 moveto
70101.2 55539.8 lineto
stroke
newpath
70101.2 56012.2 moveto
69628.8 55539.8 lineto
stroke
newpath
70828.8 60512.2 moveto
71301.2 60039.8 lineto
stroke
newpath
71301.2 60512.2 moveto
70828.8 60039.8 lineto
stroke
newpath
70828.8 59612.2 moveto
71301.2 59139.8 lineto
stroke
newpath
71301.2 59612.2 moveto
70828.8 59139.8 lineto
stroke
newpath
70828.8 58712.2 moveto
71301.2 58239.8 lineto
stroke
newpath
71301.2 58712.2 moveto
70828.8 58239.8 lineto
stroke
newpath
70828.8 57812.2 moveto
71301.2 57339.8 lineto
stroke
newpath
71301.2 57812.2 moveto
70828.8 57339.8 lineto
stroke
newpath
70828.8 56912.2 moveto
71301.2 56439.8 lineto
stroke
newpath
71301.2 56912.2 moveto
70828.8 56439.8 lineto
stroke
newpath
70828.8 56012.2 moveto
71301.2 55539.8 lineto
stroke
newpath
71301.2 56012.2 moveto
70828.8 55539.8 lineto
stroke
newpath
72028.8 60512.2 moveto
72501.2 60039.8 lineto
stroke
newpath
72501.2 60512.2 moveto
72028.8 60039.8 lineto
stroke
newpath
72028.8 59612.2 moveto
72501.2 59139.8 lineto
stroke
newpath
72501.2 59612.2 moveto
72028.8 59139.8 lineto
stroke
newpath
72028.8 58712.2 moveto
72501.2 58239.8 lineto
stroke
newpath
72501.2 58712.2 moveto
72028.8 58239.8 lineto
stroke
newpath
72028.8 57812.2 moveto
72501.2 57339.8 lineto
stroke
newpath
72501.2 57812.2 moveto
72028.8 57339.8 lineto
stroke
newpath
72028.8 56912.2 moveto
72501.2 56439.8 lineto
stroke
newpath
72501.2 56912.2 moveto
72028.8 56439.8 lineto
stroke
newpath
72028.8 56012.2 moveto
72501.2 55539.8 lineto
stroke
newpath
72501.2 56012.2 moveto
72028.8 55539.8 lineto
stroke
newpath
73228.8 60512.2 moveto
73701.2 60039.8 lineto
stroke
newpath
73701.2 60512.2 moveto
73228.8 60039.8 lineto
stroke
newpath
73228.8 59612.2 moveto
73701.2 59139.8 lineto
stroke
newpath
73701.2 59612.2 moveto
73228.8 59139.8 lineto
stroke
newpath
73228.8 58712.2 moveto
73701.2 58239.8 lineto
stroke
newpath
73701.2 58712.2 moveto
73228.8 58239.8 lineto
stroke
newpath
73228.8 57812.2 moveto
73701.2 57339.8 lineto
stroke
newpath
73701.2 57812.2 moveto
73228.8 57339.8 lineto
stroke
newpath
73228.8 56912.2 moveto
73701.2 56439.8 lineto
stroke
newpath
73701.2 56912.2 moveto
73228.8 56439.8 lineto
stroke
newpath
73228.8 56012.2 moveto
73701.2 55539.8 lineto
stroke
newpath
73701.2 56012.2 moveto
73228.8 55539.8 lineto
stroke
newpath
74428.8 60512.2 moveto
74901.2 60039.8 lineto
stroke
newpath
74901.2 60512.2 moveto
74428.8 60039.8 lineto
stroke
newpath
74428.8 59612.2 moveto
74901.2 59139.8 lineto
stroke
newpath
74901.2 59612.2 moveto
74428.8 59139.8 lineto
stroke
newpath
74428.8 58712.2 moveto
74901.2 58239.8 lineto
stroke
newpath
74901.2 58712.2 moveto
74428.8 58239.8 lineto
stroke
newpath
74428.8 57812.2 moveto
74901.2 57339.8 lineto
stroke
newpath
74901.2 57812.2 moveto
74428.8 57339.8 lineto
stroke
newpath
74428.8 56912.2 moveto
74901.2 56439.8 lineto
stroke
newpath
74901.2 56912.2 moveto
74428.8 56439.8 lineto
stroke
newpath
74428.8 56012.2 moveto
74901.2 55539.8 lineto
stroke
newpath
74901.2 56012.2 moveto
74428.8 55539.8 lineto
stroke
newpath
75628.8 60512.2 moveto
76101.2 60039.8 lineto
stroke
newpath
76101.2 60512.2 moveto
75628.8 60039.8 lineto
stroke
newpath
75628.8 59612.2 moveto
76101.2 59139.8 lineto
stroke
newpath
76101.2 59612.2 moveto
75628.8 59139.8 lineto
stroke
newpath
75628.8 58712.2 moveto
76101.2 58239.8 lineto
stroke
newpath
76101.2 58712.2 moveto
75628.8 58239.8 lineto
stroke
newpath
75628.8 57812.2 moveto
76101.2 57339.8 lineto
stroke
newpath
76101.2 57812.2 moveto
75628.8 57339.8 lineto
stroke
newpath
75628.8 56912.2 moveto
76101.2 56439.8 lineto
stroke
newpath
76101.2 56912.2 moveto
75628.8 56439.8 lineto
stroke
newpath
75628.8 56012.2 moveto
76101.2 55539.8 lineto
stroke
newpath
76101.2 56012.2 moveto
75628.8 55539.8 lineto
stroke
118.11 setlinewidth
0 0 0 setrgbcolor
0 0 0 setrgbcolor
newpath
40004.1 50703.9 moveto
40004.1 51885 lineto
40285.3 51885 lineto
40454 51828.8 lineto
40566.5 51716.3 lineto
40622.8 51603.8 lineto
40679 51378.8 lineto
40679 51210.1 lineto
40622.8 50985.1 lineto
40566.5 50872.6 lineto
40454 50760.1 lineto
40285.3 50703.9 lineto
40004.1 50703.9 lineto
stroke
newpath
41185.2 50703.9 moveto
41185.2 51491.3 lineto
stroke
newpath
41185.2 51266.3 moveto
41241.4 51378.8 lineto
41297.7 51435.1 lineto
41410.2 51491.3 lineto
41522.6 51491.3 lineto
stroke
newpath
41916.3 50703.9 moveto
41916.3 51491.3 lineto
stroke
newpath
41916.3 51885 moveto
41860.1 51828.8 lineto
41916.3 51772.5 lineto
41972.6 51828.8 lineto
41916.3 51885 lineto
41916.3 51772.5 lineto
stroke
newpath
42647.5 50703.9 moveto
42535 50760.1 lineto
42478.8 50872.6 lineto
42478.8 51885 lineto
stroke
newpath
43266.2 50703.9 moveto
43153.7 50760.1 lineto
43097.5 50872.6 lineto
43097.5 51885 lineto
stroke
newpath
44616 50703.9 moveto
44616 51885 lineto
45009.7 51041.4 lineto
45403.4 51885 lineto
45403.4 50703.9 lineto
stroke
newpath
46472 50703.9 moveto
46472 51322.6 lineto
46415.8 51435.1 lineto
46303.3 51491.3 lineto
46078.3 51491.3 lineto
45965.8 51435.1 lineto
stroke
newpath
46472 50760.1 moveto
46359.5 50703.9 lineto
46078.3 50703.9 lineto
45965.8 50760.1 lineto
45909.6 50872.6 lineto
45909.6 50985.1 lineto
45965.8 51097.6 lineto
46078.3 51153.8 lineto
46359.5 51153.8 lineto
46472 51210.1 lineto
stroke
newpath
47034.5 51491.3 moveto
47034.5 50310.2 lineto
stroke
newpath
47034.5 51435.1 moveto
47146.9 51491.3 lineto
47371.9 51491.3 lineto
47484.4 51435.1 lineto
47540.6 51378.8 lineto
47596.9 51266.3 lineto
47596.9 50928.9 lineto
47540.6 50816.4 lineto
47484.4 50760.1 lineto
47371.9 50703.9 lineto
47146.9 50703.9 lineto
47034.5 50760.1 lineto
stroke
newpath
48103.1 50816.4 moveto
48159.3 50760.1 lineto
48103.1 50703.9 lineto
48046.8 50760.1 lineto
48103.1 50816.4 lineto
48103.1 50703.9 lineto
stroke
newpath
48103.1 51435.1 moveto
48159.3 51378.8 lineto
48103.1 51322.6 lineto
48046.8 51378.8 lineto
48103.1 51435.1 lineto
48103.1 51322.6 lineto
stroke
newpath
38404 48994.1 moveto
38876.4 48521.7 lineto
stroke
newpath
38876.4 48994.1 moveto
38404 48521.7 lineto
stroke
0 0 0 setrgbcolor
0 0 0 setrgbcolor
newpath
40229.1 49404.7 moveto
40341.5 49404.7 lineto
40454 49348.4 lineto
40510.3 49292.2 lineto
40566.5 49179.7 lineto
40622.8 48954.7 lineto
40622.8 48673.5 lineto
40566.5 48448.6 lineto
40510.3 48336.1 lineto
40454 48279.8 lineto
40341.5 48223.6 lineto
40229.1 48223.6 lineto
40116.6 48279.8 lineto
40060.3 48336.1 lineto
40004.1 48448.6 lineto
39947.8 48673.5 lineto
39947.8 48954.7 lineto
40004.1 49179.7 lineto
40060.3 49292.2 lineto
40116.6 49348.4 lineto
40229.1 49404.7 lineto
stroke
newpath
41128.9 48336.1 moveto
41185.2 48279.8 lineto
41128.9 48223.6 lineto
41072.7 48279.8 lineto
41128.9 48336.1 lineto
41128.9 48223.6 lineto
stroke
newpath
42197.6 49011 moveto
42197.6 48223.6 lineto
stroke
newpath
41916.3 49460.9 moveto
41635.1 48617.3 lineto
42366.3 48617.3 lineto
stroke
newpath
43041.2 49404.7 moveto
43153.7 49404.7 lineto
43266.2 49348.4 lineto
43322.4 49292.2 lineto
43378.7 49179.7 lineto
43434.9 48954.7 lineto
43434.9 48673.5 lineto
43378.7 48448.6 lineto
43322.4 48336.1 lineto
43266.2 48279.8 lineto
43153.7 48223.6 lineto
43041.2 48223.6 lineto
42928.7 48279.8 lineto
42872.5 48336.1 lineto
42816.2 48448.6 lineto
42760 48673.5 lineto
42760 48954.7 lineto
42816.2 49179.7 lineto
42872.5 49292.2 lineto
42928.7 49348.4 lineto
43041.2 49404.7 lineto
stroke
newpath
44166.1 49404.7 moveto
44278.6 49404.7 lineto
44391 49348.4 lineto
44447.3 49292.2 lineto
44503.5 49179.7 lineto
44559.8 48954.7 lineto
44559.8 48673.5 lineto
44503.5 48448.6 lineto
44447.3 48336.1 lineto
44391 48279.8 lineto
44278.6 48223.6 lineto
44166.1 48223.6 lineto
44053.6 48279.8 lineto
43997.3 48336.1 lineto
43941.1 48448.6 lineto
43884.9 48673.5 lineto
43884.9 48954.7 lineto
43941.1 49179.7 lineto
43997.3 49292.2 lineto
44053.6 49348.4 lineto
44166.1 49404.7 lineto
stroke
newpath
45066 48223.6 moveto
45066 49011 lineto
stroke
newpath
45066 48898.5 moveto
45122.2 48954.7 lineto
45234.7 49011 lineto
45403.4 49011 lineto
45515.9 48954.7 lineto
45572.1 48842.3 lineto
45572.1 48223.6 lineto
stroke
newpath
45572.1 48842.3 moveto
45628.4 48954.7 lineto
45740.9 49011 lineto
45909.6 49011 lineto
46022.1 48954.7 lineto
46078.3 48842.3 lineto
46078.3 48223.6 lineto
stroke
newpath
46640.8 48223.6 moveto
46640.8 49011 lineto
stroke
newpath
46640.8 48898.5 moveto
46697 48954.7 lineto
46809.5 49011 lineto
46978.2 49011 lineto
47090.7 48954.7 lineto
47146.9 48842.3 lineto
47146.9 48223.6 lineto
stroke
newpath
47146.9 48842.3 moveto
47203.2 48954.7 lineto
47315.7 49011 lineto
47484.4 49011 lineto
47596.9 48954.7 lineto
47653.1 48842.3 lineto
47653.1 48223.6 lineto
stroke
newpath
49959.1 49460.9 moveto
48946.7 47942.4 lineto
stroke
newpath
51477.7 49404.7 moveto
51590.1 49404.7 lineto
51702.6 49348.4 lineto
51758.9 49292.2 lineto
51815.1 49179.7 lineto
51871.4 48954.7 lineto
51871.4 48673.5 lineto
51815.1 48448.6 lineto
51758.9 48336.1 lineto
51702.6 48279.8 lineto
51590.1 48223.6 lineto
51477.7 48223.6 lineto
51365.2 48279.8 lineto
51308.9 48336.1 lineto
51252.7 48448.6 lineto
51196.4 48673.5 lineto
51196.4 48954.7 lineto
51252.7 49179.7 lineto
51308.9 49292.2 lineto
51365.2 49348.4 lineto
51477.7 49404.7 lineto
stroke
newpath
52377.5 48336.1 moveto
52433.8 48279.8 lineto
52377.5 48223.6 lineto
52321.3 48279.8 lineto
52377.5 48336.1 lineto
52377.5 48223.6 lineto
stroke
newpath
53164.9 49404.7 moveto
53277.4 49404.7 lineto
53389.9 49348.4 lineto
53446.2 49292.2 lineto
53502.4 49179.7 lineto
53558.6 48954.7 lineto
53558.6 48673.5 lineto
53502.4 48448.6 lineto
53446.2 48336.1 lineto
53389.9 48279.8 lineto
53277.4 48223.6 lineto
53164.9 48223.6 lineto
53052.5 48279.8 lineto
52996.2 48336.1 lineto
52940 48448.6 lineto
52883.7 48673.5 lineto
52883.7 48954.7 lineto
52940 49179.7 lineto
52996.2 49292.2 lineto
53052.5 49348.4 lineto
53164.9 49404.7 lineto
stroke
newpath
54683.5 48223.6 moveto
54008.6 48223.6 lineto
stroke
newpath
54346 48223.6 moveto
54346 49404.7 lineto
54233.6 49236 lineto
54121.1 49123.5 lineto
54008.6 49067.2 lineto
stroke
newpath
55752.1 49404.7 moveto
55189.7 49404.7 lineto
55133.4 48842.3 lineto
55189.7 48898.5 lineto
55302.2 48954.7 lineto
55583.4 48954.7 lineto
55695.9 48898.5 lineto
55752.1 48842.3 lineto
55808.4 48729.8 lineto
55808.4 48448.6 lineto
55752.1 48336.1 lineto
55695.9 48279.8 lineto
55583.4 48223.6 lineto
55302.2 48223.6 lineto
55189.7 48279.8 lineto
55133.4 48336.1 lineto
stroke
newpath
56202.1 49404.7 moveto
56989.5 49404.7 lineto
56483.3 48223.6 lineto
stroke
newpath
57383.2 49404.7 moveto
57383.2 49179.7 lineto
stroke
newpath
57833.1 49404.7 moveto
57833.1 49179.7 lineto
stroke
newpath
59576.6 47773.6 moveto
59520.4 47829.9 lineto
59407.9 47998.6 lineto
59351.7 48111.1 lineto
59295.4 48279.8 lineto
59239.2 48561 lineto
59239.2 48786 lineto
59295.4 49067.2 lineto
59351.7 49236 lineto
59407.9 49348.4 lineto
59520.4 49517.2 lineto
59576.6 49573.4 lineto
stroke
newpath
60589 49404.7 moveto
60026.6 49404.7 lineto
59970.3 48842.3 lineto
60026.6 48898.5 lineto
60139.1 48954.7 lineto
60420.3 48954.7 lineto
60532.8 48898.5 lineto
60589 48842.3 lineto
60645.3 48729.8 lineto
60645.3 48448.6 lineto
60589 48336.1 lineto
60532.8 48279.8 lineto
60420.3 48223.6 lineto
60139.1 48223.6 lineto
60026.6 48279.8 lineto
59970.3 48336.1 lineto
stroke
newpath
61657.6 49404.7 moveto
61432.7 49404.7 lineto
61320.2 49348.4 lineto
61263.9 49292.2 lineto
61151.4 49123.5 lineto
61095.2 48898.5 lineto
61095.2 48448.6 lineto
61151.4 48336.1 lineto
61207.7 48279.8 lineto
61320.2 48223.6 lineto
61545.1 48223.6 lineto
61657.6 48279.8 lineto
61713.9 48336.1 lineto
61770.1 48448.6 lineto
61770.1 48729.8 lineto
61713.9 48842.3 lineto
61657.6 48898.5 lineto
61545.1 48954.7 lineto
61320.2 48954.7 lineto
61207.7 48898.5 lineto
61151.4 48842.3 lineto
61095.2 48729.8 lineto
stroke
newpath
63176.2 48223.6 moveto
63176.2 49404.7 lineto
stroke
newpath
63682.4 48223.6 moveto
63682.4 48842.3 lineto
63626.1 48954.7 lineto
63513.6 49011 lineto
63344.9 49011 lineto
63232.4 48954.7 lineto
63176.2 48898.5 lineto
stroke
newpath
64413.5 48223.6 moveto
64301.1 48279.8 lineto
64244.8 48336.1 lineto
64188.6 48448.6 lineto
64188.6 48786 lineto
64244.8 48898.5 lineto
64301.1 48954.7 lineto
64413.5 49011 lineto
64582.3 49011 lineto
64694.8 48954.7 lineto
64751 48898.5 lineto
64807.2 48786 lineto
64807.2 48448.6 lineto
64751 48336.1 lineto
64694.8 48279.8 lineto
64582.3 48223.6 lineto
64413.5 48223.6 lineto
stroke
newpath
65482.2 48223.6 moveto
65369.7 48279.8 lineto
65313.4 48392.3 lineto
65313.4 49404.7 lineto
stroke
newpath
66382 48279.8 moveto
66269.6 48223.6 lineto
66044.6 48223.6 lineto
65932.1 48279.8 lineto
65875.9 48392.3 lineto
65875.9 48842.3 lineto
65932.1 48954.7 lineto
66044.6 49011 lineto
66269.6 49011 lineto
66382 48954.7 lineto
66438.3 48842.3 lineto
66438.3 48729.8 lineto
65875.9 48617.3 lineto
stroke
newpath
66888.2 48279.8 moveto
67000.7 48223.6 lineto
67225.7 48223.6 lineto
67338.2 48279.8 lineto
67394.4 48392.3 lineto
67394.4 48448.6 lineto
67338.2 48561 lineto
67225.7 48617.3 lineto
67057 48617.3 lineto
66944.5 48673.5 lineto
66888.2 48786 lineto
66888.2 48842.3 lineto
66944.5 48954.7 lineto
67057 49011 lineto
67225.7 49011 lineto
67338.2 48954.7 lineto
stroke
newpath
67788.1 47773.6 moveto
67844.4 47829.9 lineto
67956.8 47998.6 lineto
68013.1 48111.1 lineto
68069.3 48279.8 lineto
68125.6 48561 lineto
68125.6 48786 lineto
68069.3 49067.2 lineto
68013.1 49236 lineto
67956.8 49348.4 lineto
67844.4 49517.2 lineto
67788.1 49573.4 lineto
stroke
showpage
grestore
%%EOF
