%!PS-Adobe-3.0
%%Creator: PCBNEW
%%CreationDate: Wed Nov 17 19:32:05 2021
%%Title: /home/zhicai/gDrive/silicon/rtx_git/climate_sensor_breakout/gerbers/climate_sensor_breakout-NPTH-drl_map.ps
%%Pages: 1
%%PageOrder: Ascend
%%BoundingBox: 0 0 596 842
%%DocumentMedia: A4 595 842 0 () ()
%%Orientation: Landscape
%%EndComments
%%BeginProlog
/line { newpath moveto lineto stroke } bind def
/cir0 { newpath 0 360 arc stroke } bind def
/cir1 { newpath 0 360 arc gsave fill grestore stroke } bind def
/cir2 { newpath 0 360 arc gsave fill grestore stroke } bind def
/arc0 { newpath arc stroke } bind def
/arc1 { newpath 4 index 4 index moveto arc closepath gsave fill
    grestore stroke } bind def
/arc2 { newpath 4 index 4 index moveto arc closepath gsave fill
    grestore stroke } bind def
/poly0 { stroke } bind def
/poly1 { closepath gsave fill grestore stroke } bind def
/poly2 { closepath gsave fill grestore stroke } bind def
/rect0 { rectstroke } bind def
/rect1 { rectfill } bind def
/rect2 { rectfill } bind def
/linemode0 { 0 setlinecap 0 setlinejoin 0 setlinewidth } bind def
/linemode1 { 1 setlinecap 1 setlinejoin } bind def
/dashedline { [200] 100 setdash } bind def
/solidline { [] 0 setdash } bind def
/phantomshow { moveto
    /KicadFont findfont 0.000001 scalefont setfont
    show } bind def
/textshow { gsave
    findfont exch scalefont setfont concat 1 scale 0 0 moveto show
    } bind def
/reencodefont {
  findfont dup length dict begin
  { 1 index /FID ne
    { def }
    { pop pop } ifelse
  } forall
  /Encoding ISOLatin1Encoding def
  currentdict
  end } bind def
/KicadFont /Helvetica reencodefont definefont pop
/KicadFont-Bold /Helvetica-Bold reencodefont definefont pop
/KicadFont-Oblique /Helvetica-Oblique reencodefont definefont pop
/KicadFont-BoldOblique /Helvetica-BoldOblique reencodefont definefont pop
%%EndProlog
%%Page: 1 1
%%BeginPageSetup
gsave
0.0072 0.0072 scale
linemode1
82680 0 translate 90 rotate
150 setlinewidth
%%EndPageSetup
0 0 0 setrgbcolor
177.165 setlinewidth
newpath
38965 52626 moveto
38965 63126 lineto
stroke
0 0 0 setrgbcolor
newpath
77965 52626 moveto
38965 52626 lineto
stroke
0 0 0 setrgbcolor
newpath
77965 63126 moveto
77965 52626 lineto
stroke
0 0 0 setrgbcolor
newpath
38965 63126 moveto
77965 63126 lineto
stroke
78.7394 setlinewidth
118.11 setlinewidth
0 0 0 setrgbcolor
0 0 0 setrgbcolor
newpath
40004.1 50703.9 moveto
40004.1 51885 lineto
40285.3 51885 lineto
40454 51828.8 lineto
40566.5 51716.3 lineto
40622.8 51603.8 lineto
40679 51378.8 lineto
40679 51210.1 lineto
40622.8 50985.1 lineto
40566.5 50872.6 lineto
40454 50760.1 lineto
40285.3 50703.9 lineto
40004.1 50703.9 lineto
stroke
newpath
41185.2 50703.9 moveto
41185.2 51491.3 lineto
stroke
newpath
41185.2 51266.3 moveto
41241.4 51378.8 lineto
41297.7 51435.1 lineto
41410.2 51491.3 lineto
41522.6 51491.3 lineto
stroke
newpath
41916.3 50703.9 moveto
41916.3 51491.3 lineto
stroke
newpath
41916.3 51885 moveto
41860.1 51828.8 lineto
41916.3 51772.5 lineto
41972.6 51828.8 lineto
41916.3 51885 lineto
41916.3 51772.5 lineto
stroke
newpath
42647.5 50703.9 moveto
42535 50760.1 lineto
42478.8 50872.6 lineto
42478.8 51885 lineto
stroke
newpath
43266.2 50703.9 moveto
43153.7 50760.1 lineto
43097.5 50872.6 lineto
43097.5 51885 lineto
stroke
newpath
44616 50703.9 moveto
44616 51885 lineto
45009.7 51041.4 lineto
45403.4 51885 lineto
45403.4 50703.9 lineto
stroke
newpath
46472 50703.9 moveto
46472 51322.6 lineto
46415.8 51435.1 lineto
46303.3 51491.3 lineto
46078.3 51491.3 lineto
45965.8 51435.1 lineto
stroke
newpath
46472 50760.1 moveto
46359.5 50703.9 lineto
46078.3 50703.9 lineto
45965.8 50760.1 lineto
45909.6 50872.6 lineto
45909.6 50985.1 lineto
45965.8 51097.6 lineto
46078.3 51153.8 lineto
46359.5 51153.8 lineto
46472 51210.1 lineto
stroke
newpath
47034.5 51491.3 moveto
47034.5 50310.2 lineto
stroke
newpath
47034.5 51435.1 moveto
47146.9 51491.3 lineto
47371.9 51491.3 lineto
47484.4 51435.1 lineto
47540.6 51378.8 lineto
47596.9 51266.3 lineto
47596.9 50928.9 lineto
47540.6 50816.4 lineto
47484.4 50760.1 lineto
47371.9 50703.9 lineto
47146.9 50703.9 lineto
47034.5 50760.1 lineto
stroke
newpath
48103.1 50816.4 moveto
48159.3 50760.1 lineto
48103.1 50703.9 lineto
48046.8 50760.1 lineto
48103.1 50816.4 lineto
48103.1 50703.9 lineto
stroke
newpath
48103.1 51435.1 moveto
48159.3 51378.8 lineto
48103.1 51322.6 lineto
48046.8 51378.8 lineto
48103.1 51435.1 lineto
48103.1 51322.6 lineto
stroke
showpage
grestore
%%EOF
