%TF.GenerationSoftware,KiCad,Pcbnew,5.1.10-88a1d61d58~90~ubuntu20.04.1*%
%TF.CreationDate,2021-11-17T19:32:08-08:00*%
%TF.ProjectId,climate_sensor_breakout,636c696d-6174-4655-9f73-656e736f725f,rev?*%
%TF.SameCoordinates,Original*%
%TF.FileFunction,Profile,NP*%
%FSLAX46Y46*%
G04 Gerber Fmt 4.6, Leading zero omitted, Abs format (unit mm)*
G04 Created by KiCad (PCBNEW 5.1.10-88a1d61d58~90~ubuntu20.04.1) date 2021-11-17 19:32:08*
%MOMM*%
%LPD*%
G01*
G04 APERTURE LIST*
%TA.AperFunction,Profile*%
%ADD10C,0.150000*%
%TD*%
G04 APERTURE END LIST*
D10*
X152400000Y-85090000D02*
X152400000Y-76200000D01*
X185420000Y-85090000D02*
X152400000Y-85090000D01*
X185420000Y-76200000D02*
X185420000Y-85090000D01*
X152400000Y-76200000D02*
X185420000Y-76200000D01*
M02*
